…
<img src="man/figures/README-unnamed-chunk-6-1.png" width="100%" />

### `sail_tidy`

`sail_tidy` will return a tibble of VA SAIL metrics when provided a
[data table
url](https://www.va.gov/QUALITYOFCARE/measure-up/Strategic_Analytics_for_Improvement_and_Learning_SAIL.asp).

``` r
sail_tidy("https://www.va.gov/QUALITYOFCARE/SAIL_FY19_Q1/SAIL-5_clarksburg_fy19q1.xlsx")
#> # A tibble: 63 x 8
#>    label measure_unit preferred_direc~ best_10_percent ntiles_10_50_90 site 
#>    <chr> <chr>        <chr>            <chr>           <chr>           <chr>
#>  1 Acut~ O/E          <U+2193>                0.469           0.469 - 0.857 ~ Clar~
#>  2 Acut~ O/E          <U+2193>                0.740           0.740 - 0.952 ~ Clar~
#>  3 AMI ~ %            <U+2193>                7.219           7.219 - 7.666 ~ Clar~
#>  4 CHF ~ %            <U+2193>                5.676           5.676 - 6.820 ~ Clar~
#>  5 Pneu~ %            <U+2193>                7.820           7.820 - 9.026 ~ Clar~
#>  6 COPD~ %            <U+2193>                4.402           4.402 - 5.942 ~ Clar~
#>  7 Stro~ %            <U+2193>                5.134           5.134 - 5.933 ~ Clar~
#>  8 In-h~ O/E          <U+2193>                0.000           0.000 - 0.834 ~ Clar~
#>  9 Cath~ inf/1k devi~ <U+2193>                0.000           0.000 - 0.446 ~ Clar~
#> 10 Cent~ inf/1k devi~ <U+2193>                0.000           0.000 - 0.395 ~ Clar~
#> # ... with 53 more rows, and 2 more variables: value <chr>, measure <chr>
```
…
