…
sail_tidy

sail_tidy will return a tibble of VA SAIL metrics when provided a data table url.

sail_tidy("https://www.va.gov/QUALITYOFCARE/SAIL_FY19_Q1/SAIL-5_clarksburg_fy19q1.xlsx")
#> # A tibble: 79 x 6
#>    Measure              `Measure Unit` `Best 10%` `10th-50th-90th … Site   Value
#>    <chr>                <chr>          <chr>      <chr>             <chr>  <chr>
#>  1 Acute care mortality <NA>           <NA>       <NA>              Clark… <NA> 
#>  2 1. Acute care Stand… O/E            0.469      0.469 - 0.857 - … Clark… 1.360
#>  3 2. Acute care 30-da… O/E            0.740      0.740 - 0.952 - … Clark… 1.109
#>  4 a. AMI RSMR          %              7.219      7.219 - 7.666 - … Clark… 8.106
#>  5 b. CHF RSMR          %              5.676      5.676 - 6.820 - … Clark… 8.300
#>  6 c. Pneumonia RSMR    %              7.820      7.820 - 9.026 - … Clark… 11.9…
#>  7 d. COPD RSMR         %              4.402      4.402 - 5.942 - … Clark… 5.965
#>  8 e. Stroke RSMR       %              5.134      5.134 - 5.933 - … Clark… 5.531
#>  9 Avoidable adverse e… <NA>           <NA>       <NA>              Clark… <NA> 
#> 10 1. In-hospital comp… O/E            0.000      0.000 - 0.834 - … Clark… 1.580
#> # … with 69 more rows
…
