VHA Harvest Datasets • tidyVA
…
An object created with harvest_get can be piped to harvest_wrngl to import and tidy the datasets into one tibble.

data <- links %>% harvest_wrngl()
#> readxl works best with a newer version of the tibble package.
#> You currently have tibble v1.4.2.
#> Falling back to column name repair from tibble <= v1.4.2.
#> Message displays once per session.

data
#> # A tibble: 2,310 x 9
#>    Measure `Measure Unit` Benchmark `10th-50th-90th~ Site.x Value VISN 
#>    <chr>   <chr>          <chr>     <chr>            <chr>  <chr> <chr>
#>  1 Acute ~ <NA>           <NA>      <NA>             Albany <NA>  VISN~
#>  2 1. Acu~ O/E            0.409     0.409 - 0.828 -~ Albany 0.954 VISN~
#>  3 2. Acu~ O/E            0.717     0.717 - 0.955 -~ Albany 0.847 VISN~
#>  4 a. AMI~ %              7.003     7.003 - 7.967 -~ Albany 8.320 VISN~
#>  5 b. CHF~ %              4.870     4.870 - 5.970 -~ Albany 7.201 VISN~
#>  6 c. Pne~ %              17.195    17.195 - 18.393~ Albany 18.2~ VISN~
#>  7 d. COP~ %              3.757     3.757 - 4.725 -~ Albany 5.244 VISN~
#>  8 Avoida~ <NA>           <NA>      <NA>             Albany <NA>  VISN~
#>  9 1. In-~ O/E            0.274     0.274 - 0.918 -~ Albany 0.986 VISN~
#> 10 2. Hea~ <NA>           <NA>      <NA>             Albany <NA>  VISN~
#> # ... with 2,300 more rows, and 2 more variables: Year <chr>,
#> #   Quarter <chr>
…
