VHA SAIL Metrics Datasets • tidyVA
…
links <- c(albany, syracuse, bath,
           buffalo,bronx)

data <- purrr::map_df(links, sail_tidy)

This can then easily be explored within the tidyverse

data %>% 
  distinct(Measure)
#> # A tibble: 79 x 1
#>    Measure                                                  
#>    <chr>                                                    
#>  1 Acute care mortality                                     
#>  2 1. Acute care Standardized Mortality Ratio (SMR)         
#>  3 2. Acute care 30-day Standardized Mortality Ratio (SMR30)
#>  4 a. AMI RSMR                                              
#>  5 b. CHF RSMR                                              
#>  6 c. Pneumonia RSMR                                        
#>  7 d. COPD RSMR                                             
#>  8 e. Stroke RSMR                                           
#>  9 Avoidable adverse events                                 
#> 10 1. In-hospital complications                             
#> # … with 69 more rows
…
